https://images.dog.ceo/breeds/boxer/n02108089_931.jpg
https://images.dog.ceo/breeds/boxer/n02108089_3269.jpg
https://images.dog.ceo/breeds/boxer/n02108089_7259.jpg
https://images.dog.ceo/breeds/boxer/28082007167-min.jpg
https://images.dog.ceo/breeds/boxer/n02108089_3028.jpg